<?xml version="1.0" encoding="utf-8"?>
<!-- Generator: Adobe Illustrator 17.0.0, SVG Export Plug-In . SVG Version: 6.00 Build 0)  -->
<!DOCTYPE svg PUBLIC "-//W3C//DTD SVG 1.1//EN" "http://www.w3.org/Graphics/SVG/1.1/DTD/svg11.dtd" [
	<!ENTITY ns_extend "http://ns.adobe.com/Extensibility/1.0/">
	<!ENTITY ns_ai "http://ns.adobe.com/AdobeIllustrator/10.0/">
	<!ENTITY ns_graphs "http://ns.adobe.com/Graphs/1.0/">
	<!ENTITY ns_vars "http://ns.adobe.com/Variables/1.0/">
	<!ENTITY ns_imrep "http://ns.adobe.com/ImageReplacement/1.0/">
	<!ENTITY ns_sfw "http://ns.adobe.com/SaveForWeb/1.0/">
	<!ENTITY ns_custom "http://ns.adobe.com/GenericCustomNamespace/1.0/">
	<!ENTITY ns_adobe_xpath "http://ns.adobe.com/XPath/1.0/">
]>
<svg version="1.1" id="Layer_1" xmlns:x="&ns_extend;" xmlns:i="&ns_ai;" xmlns:graph="&ns_graphs;"
	 xmlns="http://www.w3.org/2000/svg" xmlns:xlink="http://www.w3.org/1999/xlink" x="0px" y="0px" width="595.28px"
	 height="841.89px" viewBox="0 0 595.28 841.89" enable-background="new 0 0 595.28 841.89" xml:space="preserve">
<metadata>
	<sfw  xmlns="&ns_sfw;">
		<slices></slices>
		<sliceSourceBounds  width="595.612" height="595.479" bottomLeftOrigin="true" x="-0.306" y="-0.219"></sliceSourceBounds>
	</sfw>
</metadata>
<path d="M297.706,391.251c-84.508,0-152.673,68.165-152.673,152.673c0,84.509,68.165,152.673,152.673,152.673
	S450.38,628.433,450.38,543.925S382.215,391.251,297.706,391.251z M297.706,643.182c-54.612,0-99.258-44.513-99.258-99.258
	s44.513-99.258,99.258-99.258s99.258,44.513,99.258,99.258S352.318,643.182,297.706,643.182L297.706,643.182z M492.235,385.006
	c0,19.798-15.945,35.611-35.61,35.611c-19.798,0-35.61-15.945-35.61-35.611c0-19.666,15.945-35.611,35.61-35.611
	S492.235,365.341,492.235,385.006z M593.353,421.148c-2.259-47.702-13.155-89.956-48.101-124.77
	c-34.813-34.813-77.068-45.709-124.77-48.101c-49.164-2.79-196.522-2.79-245.686,0c-47.569,2.259-89.824,13.155-124.77,47.968
	S4.318,373.313,1.927,421.015c-2.79,49.164-2.79,196.522,0,245.686c2.259,47.702,13.155,89.956,48.101,124.77
	s77.068,45.709,124.77,48.101c49.164,2.79,196.522,2.79,245.686,0c47.702-2.259,89.956-13.155,124.77-48.101
	c34.813-34.813,45.709-77.068,48.101-124.77C596.144,617.538,596.144,470.312,593.353,421.148L593.353,421.148z M529.839,719.453
	c-10.364,26.044-30.428,46.108-56.605,56.605c-39.198,15.546-132.211,11.959-175.528,11.959s-136.463,3.455-175.528-11.959
	c-26.044-10.364-46.108-30.428-56.605-56.605c-15.546-39.198-11.959-132.211-11.959-175.528S50.16,407.462,65.574,368.397
	c10.364-26.043,30.428-46.108,56.605-56.605c39.198-15.546,132.211-11.959,175.528-11.959s136.463-3.455,175.528,11.959
	c26.043,10.364,46.108,30.428,56.605,56.605c15.546,39.198,11.959,132.211,11.959,175.528S545.385,680.387,529.839,719.453z"/>
</svg>
